{	"name": "TLS 1.0 and SHA256",
  "description": "Probes for support of TLS 1.0 and a SHA256 cipher suite in the same connection. Only OpenSSL 1.0.1 (erroneously) supports such a connection.",
	"affected_versions": "1.0.1",
	"access_complexity": 1,
	"destructive": 1,
  "lib": "probe_TLS1_SHA256_cpp.so",
  "confidence": 6,
  "dependency": ""
 }