{	"name": "TLS 1.1 or 1.2 support",
	"description": "Support for TLS version 1.1 or 1.2.",
	"affected_versions": "1.0.1:1.0.1zy, 1.0.2:1.0.2zy",
	"access_complexity": 1,
	"destructive": 0,
  "lib": "probe_protocol_cpp.so",
  "confidence": 10,
  "dependency": ""
 }