{	"name": "Ignore ciphers after TLS_FALLBACK_SCSV",
	"description": "Some versions ignores ciphers suites following the TLS_FALLBACK_SCSV in the ClientHello message.",
	"affected_versions": "0.9.8zc, 1.0.0o, 1.0.1j",
	"access_complexity": 1,
	"destructive": 1,
  "lib": "probe_ignore_after_fallback_cpp.so",
  "confidence": 8,
  "dependency": ""
 }